<svg width="30" height="24" viewBox="0 0 30 24" fill="none" xmlns="http://www.w3.org/2000/svg">
<path d="M28.625 23.667C28.2083 23.667 27.868 23.535 27.604 23.271C27.34 23.007 27.208 22.6807 27.208 22.292V16.625C27.208 15.153 26.6943 13.903 25.667 12.875C24.639 11.847 23.4027 11.333 21.958 11.333H5.29201L10.625 16.667C10.875 16.917 11 17.2293 11 17.604C11 17.9793 10.861 18.3057 10.583 18.583C10.3057 18.861 9.97934 19 9.60401 19C9.22934 19 8.90301 18.861 8.62501 18.583L0.958008 10.917C0.819341 10.7777 0.722341 10.6247 0.667007 10.458C0.611007 10.2913 0.583008 10.1247 0.583008 9.958C0.583008 9.764 0.611007 9.59067 0.667007 9.438C0.722341 9.28467 0.819341 9.12467 0.958008 8.958L8.66701 1.25C8.91701 1 9.22934 0.875 9.60401 0.875C9.97934 0.875 10.3057 1.014 10.583 1.292C10.861 1.56933 11 1.89567 11 2.271C11 2.64567 10.861 2.972 10.583 3.25L5.29201 8.542H21.958C24.1527 8.542 26.0417 9.32667 27.625 10.896C29.2083 12.4653 30 14.375 30 16.625V22.292C30 22.6807 29.868 23.007 29.604 23.271C29.34 23.535 29.0137 23.667 28.625 23.667Z" fill="#1C1B1F"/>
</svg>
