<svg width="250" height="330" viewBox="0 0 250 330" fill="none" xmlns="http://www.w3.org/2000/svg">
<g clip-path="url(#clip0_156_555)">
<path d="M125 330C194.036 330 250 274.08 250 205.099C250 136.118 194.036 80.1973 125 80.1973C55.9645 80.1973 0 136.118 0 205.099C0 274.08 55.9645 330 125 330Z" fill="#367CFF"/>
<path opacity="0.86" d="M125 330C194.036 330 250 274.08 250 205.099C250 136.118 194.036 80.1973 125 80.1973C55.9645 80.1973 0 136.118 0 205.099C0 274.08 55.9645 330 125 330Z" fill="white"/>
<path opacity="0.1" d="M59.1946 207.02L85.2511 244.077L41.6848 251.319L27.0931 231.645L59.1946 207.02Z" fill="#367CFF"/>
<path opacity="0.1" d="M226.996 150.033L209.486 135.466L190.031 162.976L196.117 170.012L226.996 150.033Z" fill="#367CFF"/>
<path opacity="0.1" d="M48.0078 162.976L64.1093 150.966L77.6896 173.015L62.0199 181.24L48.0078 162.976Z" fill="#367CFF"/>
<path opacity="0.1" d="M143.035 296.175L161.564 281.109L173.008 296.175L152.372 310.269L143.035 296.175Z" fill="#367CFF"/>
<path opacity="0.1" d="M68.8505 187.312L85.6654 175.036L99.0775 192.657L91.7821 200.103L102.649 214.11L112.696 207.02L124.404 221.817L102.649 237.855L68.8505 187.312Z" fill="#367CFF"/>
<path d="M249.816 211.921L187.195 254.285L216.04 290.684C215.183 291.599 214.31 292.498 213.422 293.383L184.15 256.446L133.288 294.331L155.815 326.176C154.518 326.507 153.213 326.815 151.9 327.099L129.195 294.998L97.3373 250.609L41.565 261.836L46.0273 301.915C44.6186 300.769 43.2375 299.592 41.8841 298.384L37.7367 261.128L0.696028 218.313C0.472293 216.234 0.303801 214.141 0.190552 212.032L40.2226 258.309L94.9508 247.288L18.1379 140.266C18.8339 139.119 19.5493 137.985 20.2841 136.863L98.9602 246.481L99.3911 246.394L156.783 206.042L116.13 153.307L122.001 80.236C122.999 80.2111 123.999 80.1987 125.001 80.1987C125.249 80.1987 125.498 80.1987 125.746 80.2029L119.962 152.172L159.837 203.893L237.022 149.626C237.585 150.752 238.129 151.889 238.654 153.038L101.235 249.652L131.124 291.296L184.825 251.297L184.875 251.359L249.978 207.314C249.953 208.857 249.899 210.389 249.816 211.921Z" fill="white"/>
<path d="M124.997 5.30859C85.6517 5.30859 53.8829 37.0854 53.8829 76.2795C53.8829 88.6038 58.5648 102.486 62.5593 110.302C75.6719 135.977 124.207 207.768 124.207 207.768C124.289 207.905 124.405 208.019 124.544 208.098C124.683 208.177 124.84 208.218 125 208.218C125.16 208.218 125.317 208.177 125.456 208.098C125.595 208.019 125.712 207.905 125.794 207.768C125.794 207.768 174.328 135.977 187.441 110.302C191.433 102.484 196.117 88.6038 196.117 76.2795C196.117 37.0838 164.348 5.30859 125.003 5.30859H124.997Z" fill="#367CFF"/>
<path opacity="0.12" d="M124.997 5.30859C85.6517 5.30859 53.8829 37.0854 53.8829 76.2795C53.8829 88.6038 58.5648 102.486 62.5593 110.302C75.6719 135.977 124.207 207.768 124.207 207.768C124.289 207.905 124.405 208.019 124.544 208.098C124.683 208.177 124.84 208.218 125 208.218C125.16 208.218 125.317 208.177 125.456 208.098C125.595 208.019 125.712 207.905 125.794 207.768C125.794 207.768 174.328 135.977 187.441 110.302C191.433 102.484 196.117 88.6038 196.117 76.2795C196.117 37.0838 164.348 5.30859 125.003 5.30859H124.997Z" fill="white"/>
<path d="M123.469 16.4388C123.979 16.426 124.485 16.4388 124.998 16.4388C132.883 16.4389 140.689 18.0049 147.963 21.0459C155.237 24.0869 161.833 28.5421 167.369 34.1527C172.904 39.7633 177.269 46.4173 180.208 53.728C183.147 61.0387 184.603 68.8602 184.491 76.7381C184.043 108.758 157.89 134.892 125.844 135.336C110.147 135.52 95.0136 129.498 83.7394 118.584C72.4652 107.67 65.9634 92.7465 65.6502 77.0643C65.3369 61.382 71.2376 46.2113 82.067 34.8562C92.8964 23.5011 107.777 16.8814 123.469 16.4388V16.4388Z" fill="white"/>
<path d="M143.034 0.942383C143.034 0.942383 160.248 1.15269 154.313 24.8557L152.697 24.9344L149.416 25.0942L143.034 0.942383Z" fill="#0C0C0C"/>
<path d="M123.814 49.7241C123.895 49.7167 124.212 64.501 141.41 63.88C153.317 63.4515 158.039 51.0299 158.311 51.0402C157.041 50.719 154.901 50.24 154.344 49.915C152.514 48.8386 150.243 47.7047 149.78 44.054C149.514 41.9497 150.518 31.2764 150.419 29.1538L132.038 32.5117C132.119 36.9891 133.499 47.4157 127.181 49.0063C126.13 49.2692 125.002 49.5047 123.814 49.7241Z" fill="#E98862"/>
<path opacity="0.52" d="M131.3 44.9265C131.621 44.0184 131.842 43.0779 131.958 42.1217C132.243 39.9407 132.289 37.735 132.094 35.5441C135.817 35.1883 139.366 33.796 142.337 31.5254C142.627 32.7873 144.276 38.315 143.714 39.4824C142.652 41.6895 137.934 45.184 131.3 44.9265Z" fill="#0C0C0C"/>
<path d="M135.472 42.3146C142.677 41.8008 151.37 37.4157 151.672 27.6611L151.945 18.8591C152.247 9.10447 147.364 1.03813 138.172 0.753709C128.98 0.469707 121.865 8.16428 121.563 17.9201L121.442 21.8167C121.424 23.1553 121.498 24.4935 121.662 25.8221C122.069 29.337 122.703 34.6817 125.018 38.3311C127.206 41.7764 130.869 42.6416 135.472 42.3146Z" fill="#E98862"/>
<path d="M151.009 30.6152C153.803 30.7017 156.159 27.7855 156.246 24.9943C156.333 22.2031 154.116 20.5939 151.322 20.5078L149.825 22.3335L148.608 30.5411L151.009 30.6152Z" fill="#E98862"/>
<path d="M122.036 28.7677C122.54 29.3657 123.186 29.828 123.916 30.1126C124.645 30.3972 125.433 30.4951 126.21 30.3972C127.871 30.1902 128.973 30.8696 130.36 30.7326C131.524 30.6179 131.727 30.0809 133.712 29.9634C141.383 29.508 147.136 29.0265 147.511 19.4093L152.392 15.0776C152.392 15.0776 154.573 41.7271 140.148 45.2697C131.284 47.4465 122.97 46.65 121.901 38.3311C121.032 31.5717 122.036 28.7677 122.036 28.7677Z" fill="#0C0C0C"/>
<path d="M125.669 23.2027C126.295 23.2027 126.802 22.696 126.802 22.0708C126.802 21.4457 126.295 20.939 125.669 20.939C125.044 20.939 124.536 21.4457 124.536 22.0708C124.536 22.696 125.044 23.2027 125.669 23.2027Z" fill="#0C0C0C"/>
<path d="M135.788 22.9918C136.414 22.9918 136.921 22.485 136.921 21.8599C136.921 21.2348 136.414 20.728 135.788 20.728C135.162 20.728 134.655 21.2348 134.655 21.8599C134.655 22.485 135.162 22.9918 135.788 22.9918Z" fill="#0C0C0C"/>
<path d="M148.311 26.0785C148.311 26.0785 147.619 12.2551 143.445 11.3261C140.665 10.7076 133.827 14.5396 127.581 13.2305C124.846 12.6584 122.232 13.2889 121.946 14.5785C121.831 15.0889 119.667 10.5602 124.065 5.04949C127.565 0.661107 138.946 -0.572194 144.009 0.979472C158.028 5.27636 151.887 21.1263 151.887 21.1263L151.172 25.8748L148.311 26.0785Z" fill="#0C0C0C"/>
<path d="M154.683 14.9321C158.809 14.9321 162.155 11.5894 162.155 7.46604C162.155 3.34266 158.809 0 154.683 0C150.556 0 147.211 3.34266 147.211 7.46604C147.211 11.5894 150.556 14.9321 154.683 14.9321Z" fill="#0C0C0C"/>
<path d="M130.497 30.2891H130.479C129.579 30.2638 128.072 30.121 128.09 29.4478C128.106 28.8902 129.804 22.915 129.996 22.2356C130.002 22.2052 130.015 22.1765 130.034 22.1513C130.052 22.1261 130.075 22.1049 130.102 22.089C130.129 22.073 130.159 22.0627 130.19 22.0586C130.22 22.0545 130.252 22.0568 130.282 22.0652C130.312 22.0737 130.34 22.0881 130.364 22.1077C130.388 22.1273 130.408 22.1516 130.423 22.1792C130.437 22.2068 130.446 22.237 130.448 22.268C130.451 22.2991 130.447 22.3303 130.437 22.3598C129.684 25.0056 128.56 29.0819 128.548 29.4607C128.631 29.6221 129.56 29.8047 130.492 29.8312C130.552 29.8305 130.611 29.8539 130.654 29.8964C130.698 29.9388 130.723 29.9967 130.723 30.0575C130.724 30.1182 130.701 30.1767 130.658 30.2201C130.616 30.2636 130.558 30.2884 130.497 30.2891Z" fill="#0C0C0C"/>
<path d="M127.755 18.2258C126.825 17.9496 125.837 17.9292 124.896 18.1666C124.433 18.2805 123.99 18.463 123.582 18.7082C123.177 18.9488 122.805 19.2393 122.473 19.573C122.445 19.5985 122.421 19.6293 122.405 19.6638C122.388 19.6982 122.379 19.7356 122.377 19.7738C122.375 19.8119 122.38 19.8501 122.393 19.8862C122.405 19.9222 122.425 19.9554 122.451 19.9839C122.476 20.0123 122.507 20.0355 122.541 20.052C122.576 20.0686 122.613 20.0782 122.651 20.0803C122.69 20.0824 122.728 20.0769 122.764 20.0643C122.8 20.0516 122.833 20.0319 122.862 20.0064L122.88 19.9915C123.189 19.7131 123.531 19.4746 123.9 19.2815C124.263 19.0893 124.653 18.9531 125.057 18.8775C125.854 18.7216 126.678 18.7787 127.445 19.0431L127.475 19.0538C127.584 19.0938 127.704 19.0889 127.81 19.0402C127.915 18.9915 127.996 18.9029 128.036 18.7941C128.076 18.6852 128.072 18.5649 128.023 18.4597C127.974 18.3544 127.885 18.2728 127.776 18.2329L127.755 18.2258Z" fill="#0C0C0C"/>
<path d="M134.43 19.0464C135.168 18.7081 135.983 18.5708 136.791 18.6486C137.201 18.6847 137.602 18.7824 137.982 18.9384C138.368 19.0948 138.732 19.299 139.067 19.5461L139.086 19.5585C139.116 19.5812 139.151 19.5975 139.188 19.6067C139.225 19.6158 139.264 19.6176 139.302 19.6119C139.34 19.6062 139.376 19.593 139.409 19.5733C139.441 19.5536 139.47 19.5276 139.492 19.4968C139.515 19.4661 139.531 19.4312 139.541 19.3941C139.55 19.3571 139.552 19.3185 139.546 19.2808C139.54 19.243 139.527 19.2068 139.507 19.1741C139.487 19.1414 139.461 19.1129 139.431 19.0903C139.068 18.7902 138.669 18.537 138.243 18.3368C137.813 18.1324 137.354 17.9937 136.883 17.9253C135.924 17.7805 134.943 17.8966 134.044 18.2615C133.991 18.2835 133.943 18.3157 133.903 18.3564C133.862 18.397 133.83 18.4452 133.808 18.4983C133.786 18.5514 133.775 18.6083 133.775 18.6657C133.775 18.7231 133.786 18.78 133.808 18.833C133.83 18.886 133.862 18.9342 133.903 18.9748C133.944 19.0153 133.992 19.0475 134.045 19.0695C134.098 19.0914 134.155 19.1026 134.213 19.1026C134.27 19.1026 134.327 19.0912 134.38 19.0692L134.401 19.0601L134.43 19.0464Z" fill="#0C0C0C"/>
<path d="M84.758 50.1255L85.2494 37.9688C85.2601 37.7017 85.2151 37.4353 85.1171 37.1866C85.0192 36.9379 84.8705 36.7122 84.6805 36.524C84.4905 36.3359 84.2633 36.1893 84.0135 36.0936C83.7637 35.998 83.4967 35.9553 83.2296 35.9684C82.7368 36.0078 82.2763 36.2287 81.9374 36.5883C81.5984 36.9478 81.4053 37.4204 81.3953 37.9142L81.2901 40.5224L77.8558 32.1708C77.4903 31.236 76.4429 30.3223 75.4203 30.8013C75.0152 30.9603 74.6758 31.2517 74.4576 31.628C74.2395 32.0044 74.1553 32.4435 74.2188 32.8738C74.2091 32.875 74.1995 32.8771 74.1902 32.88C74.1832 32.8833 74.1782 32.8887 74.1716 32.8924L73.6081 31.4509C73.5036 31.1838 73.3408 30.9434 73.1315 30.7471C72.9222 30.5509 72.6718 30.4038 72.3984 30.3165C72.125 30.2292 71.8356 30.204 71.5513 30.2427C71.2669 30.2814 70.9947 30.383 70.7546 30.5401C70.3817 30.7951 70.1078 31.1704 69.9787 31.6031C69.8496 32.0359 69.8731 32.4998 70.0453 32.9172L70.2836 33.5341C70.2689 33.5491 70.2572 33.5666 70.2487 33.5858C69.9905 33.209 69.6065 32.9362 69.1654 32.8163C68.7243 32.6963 68.2549 32.7371 67.8411 32.9313C67.3946 33.1571 67.0496 33.5429 66.8751 34.0116C66.7007 34.4803 66.7094 34.9975 66.8998 35.46L67.496 36.9835C67.4723 36.968 67.4453 36.9583 67.4171 36.9552C67.389 36.9521 67.3605 36.9557 67.334 36.9657C67.3032 36.9795 67.277 37.0017 67.2586 37.0299C66.9352 36.7581 66.5315 36.6 66.1094 36.5799C65.6874 36.5597 65.2704 36.6787 64.9226 36.9185C64.5623 37.1776 64.3001 37.5508 64.1785 37.9775C64.057 38.4041 64.0833 38.8593 64.253 39.2692L69.2813 52.1263C69.9849 53.9249 71.2099 55.4725 72.7994 56.5709C74.3889 57.6692 76.2705 58.2683 78.203 58.2912V58.2912C79.8693 58.3109 81.4776 57.6806 82.6864 56.5344C83.8951 55.3881 84.609 53.8162 84.6764 52.1524L84.758 50.1255Z" fill="#E98862"/>
<g opacity="0.2">
<path d="M77.5752 41.1543C77.5319 41.1709 77.4838 41.1698 77.4412 41.1514C77.3986 41.133 77.3649 41.0987 77.3473 41.0558L74.0916 33.1116C74.0824 33.0899 74.0776 33.0667 74.0775 33.0432C74.0774 33.0197 74.082 32.9964 74.0909 32.9747C74.0999 32.9529 74.1131 32.9332 74.1297 32.9166C74.1464 32.9 74.1662 32.8869 74.1879 32.878C74.2097 32.8691 74.233 32.8646 74.2565 32.8648C74.2801 32.8649 74.3033 32.8697 74.3249 32.879C74.3466 32.8882 74.3662 32.9016 74.3826 32.9184C74.399 32.9353 74.4119 32.9552 74.4205 32.977L77.6763 40.9212C77.6852 40.9428 77.6897 40.966 77.6896 40.9893C77.6895 41.0127 77.6848 41.0358 77.6758 41.0573C77.6667 41.0789 77.6535 41.0984 77.6369 41.1148C77.6203 41.1313 77.6006 41.1443 77.5789 41.1531L77.5752 41.1543Z" fill="#0C0C0C"/>
</g>
<g opacity="0.2">
<path d="M74.1086 42.6858C74.0653 42.7024 74.0172 42.7013 73.9746 42.6829C73.932 42.6645 73.8983 42.6302 73.8807 42.5873L70.2471 33.7215C70.2382 33.7 70.2337 33.6769 70.2338 33.6536C70.2338 33.6303 70.2385 33.6072 70.2475 33.5857C70.2565 33.5642 70.2697 33.5447 70.2863 33.5283C70.3028 33.5119 70.3225 33.4989 70.344 33.4901C70.3878 33.4738 70.4361 33.4747 70.4792 33.4927C70.5223 33.5107 70.5569 33.5444 70.5761 33.587L74.2097 42.4527C74.2275 42.4964 74.2272 42.5453 74.209 42.5888C74.1907 42.6322 74.156 42.6667 74.1123 42.6846L74.1086 42.6858Z" fill="#0C0C0C"/>
</g>
<g opacity="0.2">
<path d="M70.3631 44.3662C70.3197 44.3827 70.2716 44.3817 70.2291 44.3633C70.1865 44.3449 70.1528 44.3105 70.1352 44.2677L67.2349 37.1957C67.2261 37.1741 67.2216 37.151 67.2217 37.1276C67.2218 37.1043 67.2265 37.0812 67.2355 37.0597C67.2446 37.0381 67.2578 37.0186 67.2744 37.0022C67.291 36.9857 67.3107 36.9727 67.3323 36.9639C67.3539 36.9551 67.3771 36.9506 67.4004 36.9507C67.4238 36.9508 67.4469 36.9555 67.4685 36.9645C67.49 36.9736 67.5096 36.9868 67.526 37.0033C67.5424 37.0199 67.5555 37.0396 67.5643 37.0612L70.4646 44.1331C70.4824 44.1767 70.4822 44.2256 70.464 44.269C70.4458 44.3125 70.4112 44.347 70.3676 44.3649L70.3631 44.3662Z" fill="#0C0C0C"/>
</g>
<path d="M128.502 32.7702C131.218 32.9504 133.916 32.221 136.171 30.6973C136.249 30.6455 136.341 30.6169 136.435 30.6149C136.529 30.6128 136.621 30.6374 136.702 30.6857C136.782 30.7341 136.847 30.8042 136.89 30.888C136.932 30.9719 136.95 31.0659 136.941 31.1594C136.76 32.7628 135.966 35.7104 132.601 36.0859C130.428 36.3281 128.853 34.6605 128.059 33.5519C128.005 33.475 127.974 33.3843 127.969 33.2903C127.965 33.1963 127.987 33.103 128.033 33.0211C128.08 32.9392 128.148 32.8722 128.231 32.8278C128.314 32.7834 128.408 32.7634 128.502 32.7702V32.7702Z" fill="white"/>
<path d="M181.35 66.2154C179.719 61.5827 178.402 59.2726 176.727 57.4457C174.434 54.9451 170.986 52.4831 164.591 51.3657C160.684 50.6867 154.796 50.0757 154.796 50.0757C154.796 50.0861 154.795 50.0964 154.793 50.1067C154.725 50.7207 153.509 60.1669 141.952 60.2617C126.028 60.3946 127.172 49.4646 127.138 49.0179C127.141 49.0092 127.141 49.0034 127.138 49.0034C122.198 48.8113 109.881 48.7008 104.921 53.5491C104.401 54.0535 103.922 54.5984 103.489 55.1786L103.421 55.1372L92.0513 72.603L89.2116 49.4108L84.7588 50.1237L70.3071 52.4375L69.4719 52.5704L64.3226 53.3984L66.1175 67.2988L70.2305 99.1663C74.2441 108.571 80.612 116.786 88.7218 123.02C92.0779 118.288 97.6298 110.124 103.395 101.568C103.485 101.432 103.576 101.296 103.669 101.161V101.163C103.669 101.257 103.672 101.353 103.675 101.449C103.689 102.06 103.706 102.753 103.72 103.517C103.856 110.529 103.995 123.382 104.108 131.577C114.369 135.417 125.494 136.345 136.251 134.259C147.008 132.172 156.977 127.151 165.055 119.753C165.112 119.705 165.166 119.654 165.221 119.6C165.328 119.504 165.436 119.405 165.541 119.307C171.067 114.155 175.57 108.007 178.812 101.186C182.394 93.6448 184.329 85.4285 184.488 77.0828V77.0799L181.35 66.2154Z" fill="#0CBC8B"/>
<path d="M165.538 119.304C165.434 119.403 165.326 119.502 165.218 119.598C165.165 119.652 165.111 119.703 165.053 119.751L161.981 104.134L161.978 104.117L157.586 81.7959L158.141 81.6519L165.538 119.304Z" fill="#0C0C0C"/>
<path d="M103.747 103.517C103.675 103.514 103.607 103.485 103.557 103.434C103.506 103.383 103.476 103.316 103.473 103.244L102.905 90.7645C102.903 90.727 102.909 90.6895 102.921 90.6542C102.934 90.6188 102.954 90.5863 102.979 90.5586C103.005 90.5308 103.035 90.5083 103.069 90.4924C103.103 90.4764 103.14 90.4673 103.178 90.4656C103.215 90.4639 103.253 90.4696 103.288 90.4824C103.323 90.4952 103.356 90.5148 103.384 90.5401C103.412 90.5655 103.434 90.596 103.45 90.6301C103.466 90.6641 103.475 90.7009 103.477 90.7385L104.045 103.218C104.047 103.256 104.041 103.293 104.028 103.329C104.015 103.364 103.996 103.397 103.97 103.424C103.945 103.452 103.914 103.474 103.88 103.49C103.846 103.506 103.809 103.515 103.772 103.517C103.761 103.517 103.754 103.518 103.747 103.517Z" fill="#0C0C0C"/>
</g>
<defs>
<clipPath id="clip0_156_555">
<rect width="250" height="330" fill="white"/>
</clipPath>
</defs>
</svg>
