<svg width="22" height="24" viewBox="0 0 22 24" fill="none" xmlns="http://www.w3.org/2000/svg">
<path d="M18.9554 5.13232C18.7934 5.04854 18.6357 4.9567 18.4829 4.85714C18.0389 4.56354 17.6317 4.21763 17.2702 3.82684C16.3647 2.7912 16.0266 1.74064 15.9029 1.00577H15.9072C15.8037 0.39463 15.8464 0 15.8538 0H11.7316V15.9377C11.7316 16.151 11.7316 16.3633 11.723 16.5723C11.723 16.5979 11.7198 16.6214 11.7188 16.6502C11.7188 16.6608 11.7188 16.6736 11.7156 16.6854V16.695C11.6723 17.2667 11.4891 17.819 11.1823 18.3033C10.8754 18.7876 10.4542 19.189 9.95573 19.4723C9.4357 19.7682 8.84752 19.9233 8.24922 19.9224C6.3294 19.9224 4.77222 18.3567 4.77222 16.423C4.77222 14.4882 6.3294 12.9225 8.24922 12.9225C8.61292 12.9225 8.97449 12.9801 9.32006 13.0932L9.32539 8.89517C8.2759 8.75977 7.20974 8.8434 6.1942 9.14079C5.17867 9.43818 4.23581 9.94287 3.42514 10.623C2.71465 11.2401 2.1173 11.9764 1.65997 12.7988C1.48612 13.0985 0.829119 14.3048 0.750193 16.2609C0.700065 17.3701 1.0339 18.522 1.19282 18.9966V19.0073C1.29201 19.2867 1.68024 20.2424 2.31165 21.0476C2.82082 21.694 3.42242 22.2618 4.09708 22.7328V22.7221L4.10668 22.7328C6.10116 24.0873 8.31428 23.9988 8.31428 23.9988C8.69718 23.9828 9.98026 23.9988 11.4372 23.3087C13.053 22.543 13.9724 21.4028 13.9724 21.4028C14.5602 20.7214 15.0277 19.9448 15.3547 19.1065C15.728 18.1252 15.8517 16.9499 15.8517 16.4806V8.02378C15.9018 8.05364 16.5684 8.49414 16.5684 8.49414C16.5684 8.49414 17.5284 9.10955 19.0247 9.50951C20.0977 9.79428 21.545 9.85508 21.545 9.85508V5.76266C21.0384 5.81812 20.0092 5.65814 18.9544 5.13339L18.9554 5.13232Z" fill="black"/>
</svg>
